{
  "items": [{
    "id": 1,
    "type": "slideshow",
    "component": "slideshows",
    "sources": {
      "pdf": "/templates/complete/mocks/contents/vws2014.pdf"
    }
  },{
    "id": 2,
    "type": "image",
    "component": "backgrounds",
    "sources": {
      "original": "/api/complete/contents/background.complete.xl.png",
      "xl": "/templates/complete/mocks/contents/background.complete.xl.png",
      "lg": "/templates/complete/mocks/contents/background.complete.lg.png",
      "md": "/templates/complete/mocks/contents/background.complete.md.png",
      "sm": "/templates/complete/mocks/contents/background.complete.sm.png",
      "xs": "/templates/complete/mocks/contents/background.complete.xs.png"
    }
  }],
  "isTruncated": false,
  "totalItems": 3
}
